{
	"__ver": "surj:1|sponsorship:1",
	"_id": "1efPhal3QHuLVZ3XCTYvrQ",
	"module": {
		"_disp": "noonian.dbui2",
		"_id": "Qajm9_c7TSKoAV1gs5Hu4A"
	},
	"name": "form_view.html",
	"path": "sponsor_match/pivot",
	"provider": {
		"_disp": "ctrl_pivot_BasicEdit",
		"_id": "3R_KbX2UQeygR66_oMPEKQ"
	},
	"rolespec": [
	]
}