{
	"__ver": "surj:19|sponsorship:2",
	"_id": "1exl73lWQPOA6-J0iFrT8g",
	"module": {
		"_disp": "noonian.dbui2",
		"_id": "Qajm9_c7TSKoAV1gs5Hu4A"
	},
	"name": "ctrl_pivot_SponsorCompaMatch",
	"parameters": [
		"$scope",
		"db",
		"DbuiObjectPicker",
		"NoonWebService",
		"DbuiAlert",
		"$state"
	],
	"path": "surj/pivot",
	"type": "controller"
}