{
	"__ver": "surj:2|sponsorship:2",
	"_id": "2KKprW2bSPS_dI0-WThCXA",
	"definition": [
		{
			"icon": "fa-file-alt",
			"isOpen": true,
			"ref": "app.sponsorship_match.volunteer-interest-organizer"
		}
	],
	"key": "app.sponsorship_match.organizer_sidebar",
	"rolespec": [
	],
	"type": "static"
}