{
	"__ver": "surj:4|sponsorship:1",
	"_id": "2y4zyhM0RcSaEGZs2AhJwg",
	"definition": [
		{
			"action": {
				"params": {
					"className": "SponsorshipRequestForm",
					"perspective": "default"
				},
				"state": "dbui.list"
			},
			"label": "sponsorship_request_forms"
		},
		{
			"action": {
				"params": {
					"className": "Compa",
					"perspective": "seeking"
				},
				"state": "dbui.list"
			},
			"label": "seeking"
		},
		{
			"action": {
				"params": {
					"className": "Compa",
					"perspective": "matched"
				},
				"state": "dbui.list"
			},
			"label": "matched"
		},
		{
			"action": {
				"params": {
					"className": "Compa",
					"perspective": "archived"
				},
				"state": "dbui.list"
			},
			"label": "archived"
		},
		{
			"action": {
				"params": {
					"className": "Compa",
					"perspective": "all"
				},
				"state": "dbui.list"
			},
			"label": "all_compas"
		},
		{
			"action": {
				"params": {
					"className": "SponsorshipRequestForm",
					"perspective": "all"
				},
				"state": "dbui.list"
			},
			"label": "all_sponsorship_request_forms"
		}
	],
	"key": "app.sponsorship_match.compas",
	"rolespec": [
	],
	"type": "static"
}