{
	"__ver": "surj:1|sponsorship:1",
	"_id": "1KOV5TrrTMauK354kgA2Yw",
	"definition": [
		{
			"action": {
				"params": {
					"className": "VolunteerInterestForm",
					"perspective": "organize_interest"
				},
				"state": "dbui.list"
			},
			"label": "organize"
		}
	],
	"key": "app.sponsorship_match.volunteer-interest-organizer",
	"rolespec": [
	],
	"type": "static"
}