{
	"__ver": "surj:1",
	"_id": "XoEH8Y5PTWS3BsE3EWPR5g",
	"key": "db.enum.VolunteerInterestFormStatus",
	"language": {
		"_disp": "English",
		"_id": "-9vPfv2lEeSFtiimx_V4dw",
		"code": "en"
	},
	"system": false,
	"value": {
		"accepted": "Accepted",
		"new": "New",
		"rejected": "Rejected"
	}
}