{
	"__ver": "ffi-pledge-db:2|surj:2",
	"_id": "wxAv_8S-RwiOTqscbC2HEQ",
	"key": "db.enum.VettingRecommendation",
	"language": {
		"_disp": "English",
		"_id": "-9vPfv2lEeSFtiimx_V4dw",
		"code": "en"
	},
	"system": false,
	"value": {
		"1": "1 SECURITY FLAG",
		"2": "2 Would Not Support",
		"3": "3 Unsure",
		"4": "4 Support/Not Strongly",
		"5": "5 Strongly Support"
	}
}