{
	"__ver": "ffi-pledge-db:1|surj:2",
	"_id": "NyPvVWh2TpW8tsPCtc8ZQg",
	"key": "db.enum.YesNoUnsure",
	"language": {
		"_disp": "English",
		"_id": "-9vPfv2lEeSFtiimx_V4dw",
		"code": "en"
	},
	"system": false,
	"value": {
		"no": "No",
		"unsure": "Unsure",
		"yes": "Yes"
	}
}