{
	"__ver": "surj:2",
	"_id": "cqjO0ePWRKmgNYtfLAKjdg",
	"key": "db.enum.GenderExpression",
	"language": {
		"_disp": "English",
		"_id": "-9vPfv2lEeSFtiimx_V4dw",
		"code": "en"
	},
	"system": false,
	"value": {
		"female": "Female",
		"male": "Male",
		"nonbinary": "Non-binary",
		"nonconforming": "Gender Non-conforming",
		"other": "Other"
	}
}