{
	"__ver": "ffi-pledge-db:2|surj:2",
	"_id": "G_KHKA3MSQSu6N-pAq864Q",
	"key": "db.enum.FinancialDuration",
	"language": {
		"_disp": "English",
		"_id": "-9vPfv2lEeSFtiimx_V4dw",
		"code": "en"
	},
	"system": false,
	"value": {
		"12mo_or_more": "12 months or more",
		"2_to_6mo": "2-6 months",
		"2_wk_to_2_mo": "2 weeks to 2 months",
		"6_to_12mo": "6-12 months",
		"under_2_mo": "Under 2 Months",
		"under_2_weeks": "Less than 2 weeks"
	}
}