{
	"__ver": "ffi-pledge-db:2|surj:2",
	"_id": "YiYP1_KTS0mUkVAV9GkOGg",
	"key": "db.enum.SurjConnect",
	"language": {
		"_disp": "English",
		"_id": "-9vPfv2lEeSFtiimx_V4dw",
		"code": "en"
	},
	"system": false,
	"value": {
		"already_connected": "Already Connected",
		"another_affiliation": "Have another affiliation",
		"bit": "Just a bit",
		"no": "No",
		"yes": "Yes"
	}
}