{
	"__ver": "surj:3|sponsorship:1",
	"_id": "5a8oeioxTXCcj0t-l_GDAg",
	"key": "sys.dbui.bo.Sponsor",
	"language": {
		"_disp": "English",
		"_id": "-9vPfv2lEeSFtiimx_V4dw",
		"code": "en"
	},
	"system": false,
	"value": {
		"acknowl_sent": "Acknowl Sent",
		"arrest_record": "Arrest Record",
		"arrest_record_details": "Arrest Record Details",
		"city": "City",
		"communicated_with_impacted": "Communicated With Impacted",
		"connect_with_surj_chapter": "Connect With Org Chapter",
		"connected_with_surj": "Connected With Org",
		"created_by": "Created By",
		"created_date": "Created Date",
		"dob": "Dob",
		"email": "Email",
		"emailed": "Emailed",
		"financial_commitment_concerns": "Financial Commitment Concerns",
		"financial_support_duration": "Financial Support Duration",
		"first_name": "First Name",
		"followup_due": "Follow-up Due Date",
		"followup_note": "Follow-up Note",
		"gender": "Gender",
		"general_concerns": "General Concerns",
		"general_notes": "General Notes",
		"guns": "Guns",
		"household_members": "Household Members",
		"housing_duration": "Housing Duration",
		"individual_family_open": "Individual Family Open",
		"individual_family_response": "Individual Family Response",
		"info_for_matcher": "Info For Matcher",
		"info_source": "Source of this person's info",
		"info_source_other": "Other source",
		"languages": "Languages",
		"last_name": "Last Name",
		"living_situation_changes": "Living Situation Changes",
		"location": "Location",
		"male_female_either": "Male Female Either",
		"male_female_either_response": "Male Female Either Response",
		"modified_by": "Modified By",
		"modified_date": "Modified Date",
		"name": "Name",
		"needs_followup": "Needs Followup",
		"no_affiliation_response": "No Affiliation Response",
		"other_affiliation": "Other Affiliation",
		"phone": "Phone",
		"primary_sponsor_willing": "Primary Sponsor Willing",
		"primary_sponsor_willing_details": "Primary Sponsor Willing Details",
		"ready_date": "Ready Date",
		"ready_date_notes": "Ready Date Notes",
		"reviewed_vetting1_materials": "Reviewed Vetting 1 Materials",
		"source": "Source",
		"spanish_fluency": "Spanish Fluency",
		"state": "State",
		"status": "Status",
		"submission_form": "Submission Form",
		"submit_ts": "Submit Ts",
		"surj_interest": "Org Interest",
		"tags": "Tags",
		"time_to_call": "Time To Call",
		"vetter": "Vetter",
		"vetter_1_additional_notes": "Vetter 1 Additional Notes",
		"vetter_2_additional_notes": "Vetter 2 Additional Notes",
		"vetting1_conversation_date": "Vetting 1 Conversation Date",
		"vetting2_conversation_date": "Vetting 2 Conversation Date",
		"vetting_1_recommendation_rating": "Vetting 1 Recommendation Rating",
		"vetting_2_appointment": "Vetting 2 Appointment",
		"vetting_2_recommendation_rating": "Vetting 2 Recommendation Rating",
		"zip": "Zip"
	}
}