{
	"__ver": "surj:2|sponsorship:1",
	"_id": "F6KPcp7AQUC-oFpVASkyJw",
	"key": "sys.dbui.bo.Compa",
	"language": {
		"_disp": "English",
		"_id": "-9vPfv2lEeSFtiimx_V4dw",
		"code": "en"
	},
	"system": false,
	"value": {
		"a_number": "A-Number",
		"chosen_name": "Chosen name",
		"commissary_number": "Commissary number",
		"compa_location_in_us": "Compa location in U.S.",
		"compa_situation": "Situation",
		"compa_situation_details": "Other situation - details",
		"compa_situation_other": "Other situation",
		"created_by": "Created By",
		"created_date": "Created Date",
		"current_stay_timeline": "Current stay timeline",
		"current_stay_timeline_2": "Current stay timeline",
		"current_stay_timeline_3": "Current stay timeline",
		"current_stay_timeline_other": "Current stay timeline - other",
		"current_stay_timeline_other_2": "Current stay timeline - other",
		"current_stay_timeline_other_3": "Current stay timeline - other",
		"current_stay_timeline_reason": "Current stay timeline - reason",
		"date_of_birth": "Date of birth",
		"desired_location": "Desired location",
		"estimated_release_date": "Estimated release date",
		"family_members_list": "Family members",
		"family_members_with_compa": "Family members with compa",
		"first_name": "First Name",
		"gender": "Gender",
		"immediate_danger": "In immediate danger",
		"immediate_danger_details": "Details of immediate danger",
		"immediate_danger_other": "Other immediate danger",
		"last_name": "Last Name",
		"legal_name": "Legal name",
		"living_situation": "Current living situation",
		"location_along_border": "Location along border",
		"modified_by": "Modified By",
		"modified_date": "Modified Date",
		"next_bond_hearing": "Next hearing",
		"other_family_in_detention": "Other family in detention",
		"other_family_in_detention_2": "Other family in detention",
		"other_family_in_detention_3": "Other family in detention",
		"other_family_location": "Where is family",
		"other_family_location_2": "Where is family",
		"other_family_location_3": "Where is family",
		"other_information": "Other information",
		"receiving_legal_support": "Receiving legal support",
		"status": "Status",
		"submission_form": "Submission Form",
		"where_detained": "Where detained"
	}
}