{
	"__ver": "surj:1|sponsorship:2",
	"_id": "shX_2K7DTBKG__ANdj74Pg",
	"field_types": [
	],
	"is_array": false,
	"key": "custom.section_title",
	"template": {
		"_disp": "Weebly Embedded",
		"_id": "tJ7qWwJ6TmS_3EdalPJpYg"
	}
}