{
	"__ver": "surj:1",
	"_id": "lBtYiu4pRY6RihNxbrOsKg",
	"allow_customize": false,
	"key": "sys.dbui.perspective.default.SponsorshipTeamStaff",
	"rolespec": [
	],
	"system": false,
	"value": {
		"edit": {
			"d": "d"
		},
		"list": {
			"d": "d"
		},
		"picker_list": {
			"d": "d"
		},
		"view": {
			"d": "d"
		}
	}
}