{
	"__ver": "surj:3",
	"_id": "ABvdD5ZtS9OOL8XusujZsg",
	"allow_customize": false,
	"key": "sys.dbui.perspective.default.SponsorshipRequestForm",
	"rolespec": [
	],
	"system": false,
	"value": {
		"edit": {
			"d": "d"
		},
		"list": {
			"filter": {
				"status": "new"
			}
		},
		"view": {
			"d": "d"
		}
	}
}