{
	"__ver": "surj:1",
	"_id": "q6dHey8QSSGjcOCQZe-fqA",
	"allow_customize": false,
	"key": "sys.dbui.perspective.active-ro.SponsorshipTeamStaff",
	"rolespec": [
	],
	"system": false,
	"value": {
		"list": {
			"actions": [
			],
			"filter": {
				"status": "active"
			},
			"recordActions": [
				"view"
			]
		},
		"picker_list": {
			"d": "d"
		},
		"view": {
			"actions": [
				"list"
			],
			"recordActions": [
			]
		}
	}
}