{
	"__ver": "surj:1",
	"_id": "rUOpDfJ2Tn6iet2mTjtSdw",
	"allow_customize": false,
	"key": "sys.dbui.perspective.temp_unavailable.Sponsor",
	"rolespec": [
	],
	"system": false,
	"value": {
		"list": {
			"filter": {
				"status": "temp_unavailable"
			},
			"title": "Temporarily Unavailable Sponsors"
		}
	}
}