{
	"__ver": "surj:1",
	"_id": "iiXV74gDTIeG01BW1gnkNg",
	"allow_create": true,
	"allow_delete": false,
	"allow_read": true,
	"allow_update": true,
	"business_object": {
		"_disp": "Sponsor",
		"_id": "vdG0JJngRWqLA_R0634x5w"
	},
	"rolespec": [
		"xDegEN3nQ7W7EHNThD7QHA"
	]
}