{
	"__ver": "surj:2",
	"_id": "LlQrGIZ6THum_ejQHKT8LA",
	"allow_create": true,
	"allow_delete": true,
	"allow_read": true,
	"allow_update": true,
	"business_object": {
		"_disp": "VolunteerInterestForm",
		"_id": "fHKN09DUQt-UGBCdfgPIVA"
	},
	"rolespec": [
		"AkvgjJO9SxObtICY4dHDMA",
		"xDegEN3nQ7W7EHNThD7QHA"
	]
}