{
	"__ver": "surj:1",
	"_id": "Aka1NVf9R7O_dE2oqI5Ygw",
	"allow_create": true,
	"allow_delete": true,
	"allow_read": true,
	"allow_update": true,
	"business_object": {
		"_disp": "Sponsor",
		"_id": "vdG0JJngRWqLA_R0634x5w"
	},
	"rolespec": [
		"AkvgjJO9SxObtICY4dHDMA"
	]
}