{
	"__ver": "surj:2",
	"_id": "CeBSahLSQOy7KPHYBkEqzQ",
	"allow_create": true,
	"allow_delete": true,
	"allow_read": true,
	"allow_update": true,
	"business_object": {
		"_disp": "SponsorCompaMatch",
		"_id": "vugIdte1RqKPsCDHMC91Nw"
	},
	"rolespec": [
		"AkvgjJO9SxObtICY4dHDMA",
		"xDegEN3nQ7W7EHNThD7QHA"
	]
}