{
	"__ver": "surj:1",
	"_id": "XF5UnMNBSWuiT70yR5GqFg",
	"allow_create": true,
	"allow_delete": true,
	"allow_read": true,
	"allow_update": true,
	"business_object": {
		"_disp": "Compa",
		"_id": "-F3aruo5Qu6PkaID6Pfhag"
	},
	"rolespec": [
		"AkvgjJO9SxObtICY4dHDMA"
	]
}