{
	"__ver": "surj:1",
	"_id": "abmcQraPTEic6F9NVTtzJw",
	"allow_create": false,
	"allow_delete": false,
	"allow_read": true,
	"allow_update": true,
	"business_object": {
		"_disp": "EmailMessage",
		"_id": "ECYM18GkSPmhOJ1s-SYZ-A"
	},
	"rolespec": [
		"AkvgjJO9SxObtICY4dHDMA"
	]
}