{
	"__ver": "sponsorship:1",
	"_id": "FdrX833yTgS6IdW65fgDBw",
	"allow_create": false,
	"allow_delete": false,
	"allow_read": true,
	"allow_update": false,
	"business_object": [
		{
			"_disp": "Language",
			"_id": "hEP551o6TQKAtYuN6l2ALw"
		}
	],
	"name": "read languages",
	"rolespec": [
		"1PIul44STMOcms9ZoMsjeA",
		"AkvgjJO9SxObtICY4dHDMA",
		"xDegEN3nQ7W7EHNThD7QHA"
	]
}