{
	"__ver": "surj:3|sponsorship:1",
	"_id": "l4AhWzIsRNeAZZpj-t4duw",
	"before_after": "before",
	"business_object": {
		"_disp": "Sponsor",
		"_id": "vdG0JJngRWqLA_R0634x5w"
	},
	"doc": "Normalize City String; \nIf zipcode exists sans city/state, use ZipCode DB to populate",
	"key": "sponsor_match.Sponsor.onCreate.Normalize City State",
	"on_create": false,
	"on_delete": false,
	"on_update": false,
	"trigger_desc": "Disabled"
}